final_presentation
…
# Mostrar el resultado
df_abiertas_cerradas

# A tibble: 102 × 3
   nombre             fecha_apertura fecha_cierre
   <chr>              <chr>          <chr>       
 1 AEROPARQUE AERO    01-01-2018     20-09-2024  
 2 AZUL AERO          01-01-2018     20-09-2024  
 3 BAHIA BLANCA AERO  01-01-2018     20-09-2024  
 4 BENITO JUAREZ AERO 01-01-2018     20-09-2024  
 5 BOLIVAR AERO       01-01-2018     20-09-2024  
 6 CATAMARCA AERO     01-01-2018     20-09-2024  
 7 CERES AERO         01-01-2018     20-09-2024  
 8 CHAMICAL AERO      01-01-2018     20-09-2024  
 9 CHAPELCO AERO      01-01-2018     20-09-2024  
10 CHEPES             01-01-2018     20-09-2024  
# ℹ 92 more rows
…
